{
  "0": {
    "username": "-",
    "password": "-"
  },
  "5672404517289250376": {
    "username": "tito",
    "password": "1234"
  },
  "5907683745462020417": {
    "username": "abcd",
    "password": "azer"
  },
  "5576332467322869145": {
    "username": "salarie",
    "password": "1234"
  }
}